<?xml version="1.0" encoding="utf-8"?>
<!-- Generator: Adobe Illustrator 22.1.0, SVG Export Plug-In . SVG Version: 6.00 Build 0)  -->
<svg version="1.1" id="Camada_1" xmlns="http://www.w3.org/2000/svg" xmlns:xlink="http://www.w3.org/1999/xlink" x="0px" y="0px"
	 viewBox="0 0 99.2 20.9" style="enable-background:new 0 0 99.2 20.9;" xml:space="preserve">
<style type="text/css">
	.st0{fill:#005346;}
	.st1{fill:#013D32;}
	.st2{fill:#E2C28F;}
	.st3{fill:#097C66;}
</style>
<g>
	<path class="st0" d="M24.9,7.7c0,0.6-0.1,1.2-0.3,1.8c-0.9,4.1-8.7,9.1-9.1,9.3c-0.1,0.1-0.2,0.1-0.3,0.1c-0.1,0-0.2,0-0.3-0.1
		c-0.1-0.1-2.3-1.5-4.5-3.4c-0.3-0.2-0.3-0.6-0.1-0.9c0.2-0.3,0.6-0.3,0.9-0.1c1.7,1.4,3.4,2.6,4.1,3c2.4-1.5,7.5-5.4,8.2-8.3
		c0.2-0.5,0.2-1,0.2-1.4c0-1.6-0.9-3.1-2.3-3.9c-1.8-1-4.3-0.5-5.6,1.1c-0.2,0.3-0.7,0.3-1,0c-1.3-1.6-3.8-2.1-5.6-1.1
		C7.7,4.6,6.8,6.1,6.8,7.7c0,0.5,0.1,0.9,0.2,1.4c0.1,0.4,0.3,0.8,0.5,1.3h3.7l1.3-2.9c0.1-0.3,0.4-0.4,0.6-0.4
		c0.3,0,0.5,0.2,0.6,0.5l0.9,4l1.2-2c0.1-0.2,0.3-0.3,0.5-0.3h2.3c0.4,0,0.6,0.3,0.6,0.6c0,0.4-0.3,0.6-0.6,0.6h-1.9l-1.8,3
		c-0.1,0.2-0.3,0.3-0.5,0.3c0,0-0.1,0-0.1,0c-0.3,0-0.5-0.2-0.5-0.5l-0.9-3.6l-0.7,1.6c-0.1,0.2-0.3,0.4-0.6,0.4H4.2
		c-0.3,0-0.6-0.3-0.6-0.6c0-0.4,0.3-0.6,0.6-0.6h1.9C6,10.1,5.9,9.8,5.8,9.5C5.6,8.9,5.5,8.3,5.5,7.7c0-2.1,1.1-4,3-5
		c2.1-1.2,5-0.8,6.7,0.8c1.8-1.7,4.6-2,6.7-0.8C23.8,3.7,24.9,5.6,24.9,7.7z"/>
</g>
<g>
	<path class="st1" d="M30.5,2.5c1.2,0,1.8,0.4,2.3,1.3c0,0.1,0,0.1-0.1,0.1l-0.2,0.1c-0.1,0-0.1,0-0.1-0.1c-0.4-0.8-0.9-1.1-1.9-1.1
		c-1.1,0-1.8,0.5-1.8,1.3c0,1,1,1.2,1.9,1.3c1.1,0.1,2.1,0.3,2.1,1.6c0,1.1-0.8,1.8-2.3,1.8c-1.2,0-1.9-0.5-2.3-1.5
		c0-0.1,0-0.1,0.1-0.2l0.2-0.1c0.1,0,0.1,0,0.1,0.1c0.4,0.9,1,1.3,1.9,1.3c1.2,0,1.9-0.4,1.9-1.4c0-1-0.9-1.1-1.8-1.3
		c-1.1-0.1-2.2-0.3-2.2-1.6C28.4,3.2,29.2,2.5,30.5,2.5z"/>
	<path class="st1" d="M38.4,8.7h-0.2c-0.1,0-0.2,0-0.2-0.1l-0.8-1.9h-2.9l-0.8,1.9c0,0.1-0.1,0.1-0.2,0.1h-0.1c-0.1,0-0.1,0-0.1-0.1
		l2.4-6c0-0.1,0.1-0.1,0.1-0.1h0.2c0.1,0,0.1,0,0.1,0.1l2.4,6C38.5,8.7,38.5,8.7,38.4,8.7z M35.8,3L35.8,3c0,0,0,0.2-0.1,0.4
		l-1.2,3.1h2.6l-1.2-3.1C35.9,3.2,35.9,3,35.8,3z"/>
	<path class="st1" d="M41.4,8.5c1.3,0,1.9-0.7,1.9-1.8V2.7c0-0.1,0-0.1,0.1-0.1h0.2c0.1,0,0.1,0,0.1,0.1v3.9c0,1.3-0.8,2.2-2.3,2.2
		c-1.5,0-2.3-0.9-2.3-2.2V2.7c0-0.1,0-0.1,0.1-0.1h0.2c0.1,0,0.1,0,0.1,0.1v3.9C39.5,7.8,40.1,8.5,41.4,8.5z M42.2,1L42.2,1
		c0.1,0.2,0.1,0.2,0.1,0.2l-1.5,0.9c-0.1,0-0.1,0-0.1,0l-0.1-0.1c-0.1-0.1,0-0.1,0-0.1L42,1C42.1,1,42.1,1,42.2,1z"/>
	<path class="st1" d="M49.4,4.9v1.6c0,1.4-0.9,2.3-2.5,2.3h-1.8c-0.1,0-0.1,0-0.1-0.1V2.7c0-0.1,0-0.1,0.1-0.1h1.8
		C48.5,2.6,49.4,3.5,49.4,4.9z M46.9,3h-1.5v5.4h1.5c1.3,0,2.1-0.7,2.1-1.9V4.9C49,3.7,48.3,3,46.9,3z"/>
	<path class="st1" d="M54.3,2.7v0.2c0,0.1,0,0.1-0.1,0.1H51v2.5h2.9c0.1,0,0.1,0,0.1,0.1v0.2c0,0.1,0,0.1-0.1,0.1H51v2.5h3.4
		c0.1,0,0.1,0,0.1,0.1v0.2c0,0.1,0,0.1-0.1,0.1h-3.6c-0.1,0-0.1,0-0.1-0.1V2.7c0-0.1,0-0.1,0.1-0.1h3.5C54.3,2.6,54.3,2.6,54.3,2.7z
		"/>
</g>
<g>
	<path class="st0" d="M37.2,10.9v7.5c0,0.4-0.1,0.5-0.5,0.5h-1.3c-0.4,0-0.5-0.1-0.5-0.5v-1.7c0-0.8,0.1-1.5,0.5-3.1h-0.1
		c-0.1,0.4-0.6,1.5-0.8,2l-0.7,1.4c-0.1,0.2-0.3,0.3-0.6,0.3h-0.8c-0.3,0-0.4-0.1-0.6-0.3l-0.7-1.4c-0.3-0.5-0.6-1.6-0.7-2h-0.1
		c0.4,1.7,0.5,2.3,0.5,3.2v1.7c0,0.4-0.1,0.5-0.5,0.5H29c-0.4,0-0.5-0.1-0.5-0.5v-7.5c0-0.4,0.1-0.5,0.5-0.5h1.1
		c0.4,0,0.5,0.1,0.7,0.4l2,3.9l2-3.9c0.2-0.3,0.3-0.4,0.7-0.4h1.2C37,10.4,37.2,10.5,37.2,10.9z"/>
	<path class="st0" d="M45.6,18.9h-1.3c-0.6,0-0.8-0.1-0.9-0.5l-0.3-0.9h-2.6l-0.3,0.9c-0.1,0.4-0.3,0.5-0.9,0.5h-1.3
		c-0.4,0-0.4-0.2-0.3-0.5l2.8-7.6c0.1-0.3,0.3-0.4,0.6-0.4h1.4c0.3,0,0.5,0.1,0.6,0.4l2.8,7.6C46.1,18.7,46,18.9,45.6,18.9z
		 M41.9,12.6h-0.1c0,0,0,0.9-0.2,1.7l-0.4,1.4h1.5l-0.4-1.4C41.9,13.4,41.9,12.6,41.9,12.6z"/>
	<path class="st0" d="M53.8,10.9v7.5c0,0.4-0.1,0.5-0.5,0.5H52c-0.3,0-0.4-0.1-0.5-0.2l-1.8-2.8c-0.5-0.8-0.7-1.4-1.1-2.5h-0.1
		c0.3,1.2,0.4,1.8,0.4,3.1v2c0,0.4-0.1,0.5-0.5,0.5h-1.2c-0.4,0-0.5-0.1-0.5-0.5v-7.5c0-0.4,0.1-0.5,0.5-0.5h1.4
		c0.3,0,0.4,0.1,0.5,0.2l2,3.1c0.5,0.8,0.6,1.3,1,2.2h0.1c-0.4-1.2-0.5-1.8-0.5-3v-2c0-0.4,0.1-0.5,0.5-0.5h1.2
		C53.7,10.4,53.8,10.5,53.8,10.9z"/>
	<path class="st0" d="M62.3,18.9H61c-0.6,0-0.8-0.1-0.9-0.5l-0.3-0.9h-2.6l-0.3,0.9c-0.1,0.4-0.3,0.5-0.9,0.5h-1.3
		c-0.4,0-0.4-0.2-0.3-0.5l2.8-7.6c0.1-0.3,0.3-0.4,0.6-0.4h1.4c0.3,0,0.5,0.1,0.6,0.4l2.8,7.6C62.8,18.7,62.6,18.9,62.3,18.9z
		 M58.6,12.6h-0.1c0,0,0,0.9-0.2,1.7l-0.4,1.4h1.5l-0.4-1.4C58.6,13.4,58.6,12.6,58.6,12.6z"/>
	<path class="st0" d="M66.6,17c0.8,0,1.2-0.4,1.2-1.1v-5c0-0.4,0.1-0.5,0.5-0.5h1.4c0.4,0,0.5,0.1,0.5,0.5v4.9c0,2-1.2,3.3-3.6,3.3
		c-2.4,0-3.6-1.3-3.6-3.3v-4.9c0-0.4,0.1-0.5,0.5-0.5h1.4c0.4,0,0.5,0.1,0.5,0.5v5C65.3,16.6,65.7,17,66.6,17z"/>
	<path class="st0" d="M78.3,18.9H77c-0.6,0-0.8-0.1-0.9-0.5l-0.3-0.9h-2.6L73,18.4c-0.1,0.4-0.3,0.5-0.9,0.5h-1.3
		c-0.4,0-0.4-0.2-0.3-0.5l2.8-7.6c0.1-0.3,0.3-0.4,0.6-0.4h1.4c0.3,0,0.5,0.1,0.6,0.4l2.8,7.6C78.8,18.7,78.7,18.9,78.3,18.9z
		 M74.6,12.6h-0.1c0,0,0,0.9-0.2,1.7l-0.4,1.4h1.5l-0.4-1.4C74.6,13.4,74.6,12.6,74.6,12.6z"/>
	<path class="st0" d="M86.2,13.3c0,1.2-0.5,2-1.3,2.5c0.1,0.2,0.2,0.3,0.3,0.5l1.1,2.1c0.2,0.3,0.1,0.6-0.3,0.6h-1.3
		c-0.6,0-0.9-0.2-1.1-0.6l-0.8-1.6c-0.2-0.4-0.4-0.6-0.9-0.6h-0.3v2.3c0,0.4-0.1,0.5-0.5,0.5h-1.4c-0.4,0-0.5-0.1-0.5-0.5v-7.5
		c0-0.4,0.1-0.5,0.5-0.5h3.4C85.1,10.4,86.2,11.4,86.2,13.3z M83,12.5h-1.3v1.6H83c0.5,0,0.8-0.3,0.8-0.8
		C83.8,12.8,83.5,12.5,83,12.5z"/>
	<path class="st0" d="M94.5,18.9h-1.3c-0.6,0-0.8-0.1-0.9-0.5L92,17.5h-2.6l-0.3,0.9c-0.1,0.4-0.3,0.5-0.9,0.5H87
		c-0.4,0-0.4-0.2-0.3-0.5l2.8-7.6c0.1-0.3,0.3-0.4,0.6-0.4h1.4c0.3,0,0.5,0.1,0.6,0.4l2.8,7.6C95,18.7,94.9,18.9,94.5,18.9z
		 M90.8,12.6h-0.1c0,0,0,0.9-0.2,1.7L90,15.6h1.5L91,14.2C90.8,13.4,90.8,12.6,90.8,12.6z"/>
</g>
<path class="st2" d="M15.5,3.3c1.9,1.1,5.8,2.9,7.3,9.5c0,0.1,4.6-4.9,0.4-9.3C19.7,0,15.2,3.2,15.5,3.3z"/>
<path class="st3" d="M23.7,0.8c-0.2,0.8-0.8,1.8-0.1,2.7c1.2,1.6,0.6,5.9,0.6,5.6c-0.2-1.5-0.8-6-4.1-7.1c-0.2-0.1,1.9,0.2,2.3,0
	C22.9,1.8,23.7,0.8,23.7,0.8z"/>
<path class="st3" d="M17.4,2.7c0,0,0.4,0.7,0.3,1.2s1-0.6,1-0.6s-0.1-0.9,0-1S17.7,2.7,17.4,2.7z"/>
<path class="st3" d="M19.8,4.1c0,0,1,0,1.3-0.3s-0.3,1.1-0.2,1.4c0,0.3-0.9,0-1.2,0.2C19.3,5.5,20,4.4,19.8,4.1z"/>
<path class="st3" d="M21.6,6.2c0,0,0.8,0.2,1-0.1c0.2-0.3-0.3,0.9-0.3,1.2c0,0.4-0.5-0.2-1.1-0.1S21.6,6.7,21.6,6.2z"/>
<path class="st3" d="M22.6,8.3c0,0-0.3,1.2-0.4,1.2c-0.1,0.1,0.8-0.2,1,0c0.2,0.2,0.2-0.5,0.6-0.9S22.6,8.3,22.6,8.3z"/>
<circle class="st2" cx="18.1" cy="3.1" r="0.1"/>
<circle class="st2" cx="20.3" cy="4.8" r="0.1"/>
<circle class="st2" cx="21.9" cy="6.8" r="0.1"/>
<circle class="st2" cx="23" cy="9" r="0.1"/>
</svg>
