<?xml version="1.0" encoding="iso-8859-1"?>
<!-- Generator: Adobe Illustrator 18.0.0, SVG Export Plug-In . SVG Version: 6.00 Build 0)  -->
<!DOCTYPE svg PUBLIC "-//W3C//DTD SVG 1.1//EN" "http://www.w3.org/Graphics/SVG/1.1/DTD/svg11.dtd">
<svg version="1.1" id="Camada_1" xmlns="http://www.w3.org/2000/svg" xmlns:xlink="http://www.w3.org/1999/xlink" x="0px" y="0px"
	 viewBox="0 0 50 50" style="enable-background:new 0 0 50 50;" xml:space="preserve">
<g>
	<circle style="fill:#E4E3E4;" cx="25" cy="25" r="24"/>
	<g>
		<circle style="fill:#757374;" cx="25.002" cy="18.369" r="8.991"/>
		<g>
			<defs>
				<circle id="SVGID_21_" cx="25" cy="25" r="24"/>
			</defs>
			<clipPath id="SVGID_2_">
				<use xlink:href="#SVGID_21_"  style="overflow:visible;"/>
			</clipPath>
			<path style="clip-path:url(#SVGID_2_);fill:#757374;" d="M42.686,41.221c0,0,0.181-9.565-17.686-9.408S7.314,41.221,7.314,41.221
				l0,6.717L25,53.73c0,0,18.015-0.47,17.686-1.566C42.357,51.069,42.686,41.221,42.686,41.221z"/>
		</g>
	</g>
</g>
</svg>
